204070 318202 443
226216 253874 443
922550 757570 525
526916 735127 509
19804 100035 351
581557 690925 509
230744 429192 449
77102 399810 443
452940 211978 449
982722 592467 525
581787 210491 470
967880 351727 525
743709 197823 509
737063 292154 509
125308 464442 449
657988 354572 509
19630 580804 470
338373 852217 525
766863 746553 424
33984 800940 509
248794 96878 443
910277 558124 525
546820 824190 509
344836 281857 389
941877 11842 525
987869 684335 525
280547 544287 470
849219 346273 525
117645 138744 344
465611 48673 449
691665 751172 504
679639 340996 509
230763 501883 449
226201 667043 509
615243 311211 470
6 169155 383
759250 793127 468
509401 263766 449
639208 56606 509
546753 909979 525
734844 640905 504
734697 15776 509
123737 173694 383
399393 803880 509
887970 704226 525
467054 318887 449
803946 763324 468
88619 811370 509
361074 539812 470
34329 38099 324
390400 519066 470
546955 540482 452
675928 916530 525
103847 622480 470
125466 117933 336
401561 517813 470
312439 914212 525
469722 745609 509
845713 321438 525
492760 971175 525
95855 872640 525
448323 690606 509
928922 840804 476
595444 235617 470
520278 835906 509
497785 317358 449
563712 197002 470
266433 596044 470
678849 286868 509
765729 686653 504
736428 909551 525
573697 28275 470
574906 723990 509
788134 634319 504
510687 527489 470
468636 503556 426
978632 229015 525
520639 817818 509
147956 519360 470
473766 169295 449
688812 796377 504
134701 484760 449
639136 24897 509
175006 652613 509
545056 747536 509
250747 499778 449
173684 126824 383
513515 464505 470
803288 942627 525
107391 656597 509
59159 432492 449
395487 709730 509
120130 853609 525
261717 744848 509
198349 675030 509
892726 442327 525
49159 817197 509
341608 356532 441
102965 346177 443
595349 546385 452
470345 544683 470
447147 328770 449
348548 33947 443
138956 671980 509
865253 953936 507
594201 77376 470
707468 854690 525
811734 510181 509
990256 725180 525
728762 998644 525
185338 528360 470
903190 104668 525
276156 959107 525
263967 349926 441
770577 528335 509
417626 323604 449
585745 542887 452
548259 502626 470
973297 747469 525
238233 119406 443
538230 809247 509
90473 438835 449
33492 163817 383
586870 877169 525
262823 766292 509
131362 27497 354
99021 413755 449
270652 230468 443
135646 634718 509
438470 677011 509
435529 269295 449
672225 741489 504
221260 600970 470
566551 468421 470
435791 796098 509
426565 527140 470
175326 11798 383
812771 461843 509
333697 177411 443
579314 570410 390
104378 305203 443
585985 956948 525
936539 826835 525
831195 93618 509
715073 278466 509
243280 807455 509
79153 937381 525
482718 863438 525
462477 588119 470
440445 166224 449
59058 123774 354
13252 574387 470
292337 893241 525
567099 891076 525
346217 641525 509
479998 903348 525
724926 728863 362
563082 855640 525
596472 655156 509
596007 38282 470
740410 61364 509
152754 745901 509
284380 759028 509
108166 628046 509
807272 141907 509
417223 621351 470
193326 147012 383
749834 884861 525
13892 134794 354
802596 123753 509
114462 750211 509
67150 706995 509
416006 683291 509
703218 703897 349
443895 399521 449
124244 884336 525
877852 6838 525
669280 963874 525
210080 621858 470
489548 61461 449
827953 582976 509
192233 659309 509
529495 863066 525
743308 222055 509
702315 462287 509
147859 10982 375
249461 445617 449
97750 938827 525
817958 236139 509
38380 774141 509
582254 447839 470
513623 446024 470
605499 249486 470
739469 858849 525
384080 627377 509
565411 201928 470
737277 506212 509
709720 1606 509
473984 823042 509
864892 832150 525
