499580 555850 470
738675 629111 504
795559 571474 509
929304 248010 525
867627 832577 525
737445 172910 509
141100 753179 509
922398 27191 525
953928 990297 458
688099 335044 509
459247 564306 470
482847 512267 470
760517 839046 525
253178 128746 443
640821 441582 509
955298 458809 525
395402 697087 509
521211 277714 470
373545 410988 449
673514 457014 509
870754 800892 525
750286 309785 509
766544 722428 424
766011 8938 509
185955 74458 383
86601 20706 351
250423 156316 443
979162 89477 525
870404 264561 525
949529 244860 525
427260 740795 509
721448 314224 509
246772 982102 525
975686 979541 383
298280 253427 407
221984 740511 509
258023 612360 470
125919 278734 443
895321 610320 525
970055 963321 383
351317 672612 509
692469 91216 509
652731 503878 509
995854 831359 525
669919 111222 509
941305 616620 525
295967 288341 389
380546 112920 443
800448 579268 509
784930 736566 468
394706 567675 470
286653 161476 443
589065 875068 525
857648 763249 525
245572 300743 407
362597 421725 449
220166 303557 443
387877 163369 443
828845 612120 509
742804 688539 504
312087 562440 470
972454 633949 525
922642 189482 525
625362 931937 525
841854 492313 525
392309 976404 525
31088 180319 383
553692 337508 470
154030 974522 525
176037 836850 509
864247 808193 525
90481 198679 383
334375 483701 449
263220 758425 509
117678 313953 443
389749 706758 509
871795 369929 525
245506 77610 443
731923 263356 509
323541 737320 509
796521 680164 504
868202 937304 476
443408 963535 525
752597 642190 504
243895 797265 509
493622 337926 449
66756 851322 525
752597 642190 504
243895 797265 509
493622 337926 449
66756 851322 525
85470 825027 509
546949 863805 525
589675 565236 434
887027 579198 525
48447 202801 383
403634 703976 509
168964 272233 443
833971 786384 468
811619 732104 468
925636 682906 525
626267 531110 452
553575 509768 470
976861 612233 525
750253 135961 509
501013 525066 470
480435 505638 426
410111 262245 449
862607 887493 445
986966 59242 525
877132 469857 525
820863 785285 468
744116 104990 509
998534 463913 525
349379 459515 449
549775 185330 470
37856 38958 244
932639 88190 525
245251 251050 350
938095 582497 525
472149 875928 525
694250 777339 504
740142 944008 525
233965 931731 525
374891 494348 449
428155 698898 509
628890 881235 525
533098 783596 509
528476 932069 525
386192 992558 525
155073 420877 449
258210 686036 509
78373 491926 449
425364 127759 449
94507 132106 354
769663 103909 509
867426 746216 525
732477 741564 424
84678 641099 509
943199 997162 458
118095 865639 525
100295 340616 443
209258 955752 525
396297 84793 443
236065 798338 509
466416 118681 449
911914 234666 525
413542 749627 509
269916 758512 509
911914 234666 525
413542 749627 509
269916 758512 509
831139 977850 525
36656 359319 443
120724 419791 449
989342 372005 525
878920 554948 525
283229 474226 449
951682 854893 507
570546 423466 470
13640 689267 509
735732 49993 509
377886 97193 443
239346 911283 525
210954 237257 443
50495 154146 375
92553 583044 470
307984 395478 441
335154 150653 443
616996 699784 509
751542 581351 509
815722 613783 509
807546 185703 509
743050 735680 424
493292 945736 525
484021 945014 525
813682 64503 509
102267 447827 449
444794 534440 470
777386 863554 525
927333 577012 525
864942 470806 525
861489 832628 525
674605 366948 509
307561 235164 407
38809 436193 449
508857 975033 525
232512 929095 525
611971 518933 452
504337 947680 525
82522 536523 470
158433 890631 525
827454 363309 509
258291 258218 208
114636 152300 375
91698 261354 443
215824 739169 509
712119 817216 468
173298 366207 443
172151 132252 383
