271781 417561 449
635883 359677 509
967735 501378 525
980810 573519 525
591227 876632 525
885732 22336 525
639346 231755 509
945689 548036 525
148483 896037 525
71927 545018 470
78590 790975 509
321613 78060 443
331134 935583 525
761204 749810 424
991171 734864 525
690265 699865 442
193614 468421 449
291275 751033 509
241506 839058 525
804936 377143 509
228033 30414 386
997790 444422 525
827194 253634 509
562805 33428 470
621211 591982 447
607567 680388 509
41777 2009 324
886418 597473 525
923171 145654 525
969493 192929 525
674630 968436 525
813226 611766 509
349993 627612 509
363694 750499 509
721508 685849 504
749997 296643 509
678036 235974 509
261288 796304 509
422732 147126 449
123241 32729 354
163513 673100 509
470390 800362 509
463835 370859 449
204352 520114 470
616027 932037 525
521669 783354 509
21778 297345 443
448508 236532 449
316723 125027 443
560079 42164 470
361655 935972 525
283191 576211 470
411956 185827 449
29616 240460 443
888324 234567 525
601952 142176 470
334645 329222 353
686873 959474 525
861495 563369 525
137738 886044 525
761610 806464 468
795376 154475 509
560108 994521 525
425623 908754 525
793620 727070 468
650213 153491 509
689985 992682 525
688566 39082 509
696284 344143 509
832079 98748 509
64420 703842 509
275353 621335 470
598452 457665 470
782227 455639 509
25109 18709 282
647807 449683 509
684218 145232 509
719199 109851 509
966049 930652 507
231245 103734 443
416052 840499 525
961660 882605 507
84341 528081 470
442923 723681 509
356539 509930 449
930980 708274 525
728949 835455 468
107242 131374 349
976860 787027 525
586882 933503 525
951737 70554 525
375287 548646 470
674223 948157 525
494126 41433 449
99205 472864 449
731165 269291 509
288410 944710 525
752789 193342 509
79617 569586 470
735602 737738 424
403268 999054 525
919505 868550 476
985577 586371 525
77901 460634 449
770049 620257 509
158043 627598 509
944251 883049 507
148063 242724 443
436414 970319 525
714886 532845 509
724718 788731 468
657093 649446 429
345012 671914 509
76970 620260 470
212325 569760 470
513621 847860 525
770880 427312 509
518212 398462 470
419167 71579 449
310943 357136 441
146001 229545 386
874705 748123 525
107594 729646 509
795767 460523 509
980796 317248 525
474652 218255 449
383929 979823 525
907048 810648 525
728410 61159 509
653149 464733 509
659797 90576 509
375327 820113 509
511056 521219 470
437230 777732 509
565432 739422 509
188331 846673 525
698340 574696 509
174729 144374 383
414146 934122 525
686302 490894 509
484365 504606 426
860017 936345 476
842179 524642 525
976845 511079 525
258992 618966 470
273392 235624 407
435582 537399 470
500604 912368 525
583469 1240 470
640946 79938 509
237487 844150 525
611382 807730 509
594920 355528 470
179661 978044 525
741223 959212 525
933088 328519 525
121536 871858 525
683448 649954 442
669859 791715 504
449938 510123 444
47092 40295 314
972289 977894 383
845574 150668 525
272471 248134 407
77519 658093 509
615693 363311 470
681787 961324 525
846282 596777 525
947354 47773 525
361710 666489 509
600287 417978 470
735128 767055 424
776965 360742 509
569896 820076 509
583436 230508 470
107891 704726 509
601081 492410 470
220723 430372 449
586414 806676 509
769936 948859 525
49509 401373 443
297338 383029 441
557745 124194 470
744294 734155 424
633332 200317 509
675050 275494 509
334575 542169 470
988928 952061 458
460635 390073 449
742972 735542 424
575536 564189 421
749357 129326 509
487449 846274 525
930338 727013 525
671014 402036 509
200650 454856 449
978816 912076 507
171369 908746 525
457123 963267 525
565294 481487 470
149744 335982 443
